{
    "studio.tabNavProjects": "Projektit",
    "studio.tabNavProjectsWithCount": "{projectCount} projektia",
    "studio.tabNavCurators": "Kuraattorit",
    "studio.tabNavComments": "Kommentit",
    "studio.tabNavCommentsWithCount": "{commentCount} kommenttia",
    "studio.tabNavActivity": "Aktiivisuus",
    "studio.showingDeleted": "Näytetään poistettu studio",
    "studio.title": "Otsikko",
    "studio.description": "Kuvaus",
    "studio.thumbnail": "Pikkukuva",
    "studio.updateErrors.generic": "Jokin meni pieleen studion päivittämisessä.",
    "studio.updateErrors.inappropriate": "Se tuntuu sopimattomalta. Ole kunnioittava.",
    "studio.updateErrors.textTooLong": "Se on liian pitkä.",
    "studio.updateErrors.requiredField": "Tämä ei voi olla tyhjä.",
    "studio.updateErrors.thumbnailTooLarge": "Tiedoston enimmäiskoko on 512 kt ja alle 500 x 500 pikseliä.",
    "studio.updateErrors.thumbnailInvalid": "Lähetä kelvollinen kuva. Lataamasi tiedosto ei ollut kuva tai se oli vioittunut kuva.",
    "studio.followErrors.confirmEmail": "Vahvista ensin sähköpostiosoitteesi",
    "studio.followErrors.generic": "Jokin meni pieleen studion seuraamisessa",
    "studio.sectionLoadError.projectsHeadline": "Jokin meni pieleen projektien lataamisessa",
    "studio.sectionLoadError.curatorsHeadline": "Jokin meni pieleen kuraattoreiden lataamisessa",
    "studio.sectionLoadError.managersHeadline": "Jokin meni pieleen managerien lataamisessa",
    "studio.sectionLoadError.activityHeadline": "Jokin meni pieleen lataustoiminnossa",
    "studio.sectionLoadError.tryAgain": "Yritä uudelleen",
    "studio.projectsHeader": "Projektit",
    "studio.addProjectsHeader": "Lisää projekteja",
    "studio.addProject": "Lisää URL-osoitteella",
    "studio.openToAll": "Kuka tahansa voi lisätä projekteja",
    "studio.addProjects.noSharedYet": "Sinulla ei ole vielä jaettuja projekteja, jotka voit lisätä tähän studioon.",
    "studio.addProjects.noFavoritedYet": "Sinulla ei ole vielä suosikkiprojekteja, joita voit lisätä tähän studioon.",
    "studio.addProjects.noRecentYet": "Sinulla ei ole vielä äskettäin katsottuja projekteja, jotka voit lisätä tähän studioon.",
    "studio.addProjects.noStudentsYet": "Sinulla ei ole vielä opiskelijaprojekteja, jotka voit lisätä tähän studioon.",
    "studio.projectsEmptyCanAdd1": "Studiosi näyttää hieman tyhjältä.",
    "studio.projectsEmptyCanAdd2": "Lisää ensimmäinen projekti!",
    "studio.projectsEmpty1": "Tällä studiolla ei ole vielä projekteja.",
    "studio.projectsEmpty2": "Ehdota kommenteissa projekteja, jotka haluat lisätä!",
    "studio.browseProjects": "Selaa projekteja",
    "studio.projectErrors.checkUrl": "Tätä projektia ei löytynyt. Tarkista URL-osoite ja yritä uudelleen.",
    "studio.projectErrors.generic": "Projektia ei voitu lisätä.",
    "studio.projectErrors.tooFast": "Lisäät projekteja liian nopeasti.",
    "studio.projectErrors.permission": "Sinulla ei ole lupaa lisätä kyseistä projektia.",
    "studio.projectErrors.duplicate": "Tuo projekti on jo tässä studiossa.",
    "studio.creatorRole": "Studion luoja",
    "studio.hostRole": "Studio Host",
    "studio.managersHeader": "Managerit",
    "studio.unfollowStudio": "Lopeta studion seuraaminen",
    "studio.followStudio": "Seuraa studiota",
    "studio.editThumbnail": "Muokkaa pikkukuvaa",
    "studio.curatorsHeader": "Kuraattorit",
    "studio.inviteCuratorsHeader": "Kutsu kuraattoreita",
    "studio.inviteCurator": "Kutsu",
    "studio.inviteCuratorPlaceholder": "Scratch-käyttäjänimi",
    "studio.curatorInvitationAccepted": "Onnea! Olet nyt tämän studion kuraattori.",
    "studio.curatorInvitation": "Sinut on kutsuttu tämän studion kuraattoriksi.",
    "studio.curatorAcceptInvite": "Hyväksy kutsu",
    "studio.curatorInvitationError": "Jokin meni pieleen, yritä myöhemmin uudelleen.",
    "studio.curatorsEmptyCanAdd1": "Sinulla ei ole kuraattoreita juuri nyt.",
    "studio.curatorsEmptyCanAdd2": "Lisää kuraattoreita tekemään yhteistyötä!",
    "studio.curatorsEmpty1": "Tällä studiolla ei ole kuraattoreita juuri nyt.",
    "studio.curatorErrors.generic": "Kuraattoria ei voitu kutsua.",
    "studio.curatorErrors.alreadyCurator": "He ovat jo osa studiota.",
    "studio.curatorErrors.unknownUsername": "Kuraattoria, jolla oli tämä käyttäjätunnus, ei voitu kutsua.",
    "studio.curatorErrors.tooFast": "Lisäät kuraattoreita liian nopeasti.",
    "studio.curatorDoYouWantToPromote": "Haluatko ylentää tämän henkilön manageriksi?",
    "studio.curatorManagersCan": "Managerit voivat...",
    "studio.curatorAddAndDeleteCurators": "lisätä ja poistaa kuraattoreita",
    "studio.curatorDeleteManagers": "poistaa muita managereita",
    "studio.curatorAddAndDeleteProjects": "lisätä ja poistaa projekteja",
    "studio.curatorIfYouTrust": "Jos luotat tähän henkilöön ja haluat varmasti antaa hänelle ylimääräisiä käyttöoikeuksia, valitse Ylennä.",
    "studio.managerLimitReachedHeader": "Tämä studio on saavuttanut {managerLimit} managerin rajan.",
    "studio.managerLimitMessageCollaborative": "On hienoa nähdä, että tämä studio on yhteistyöhön perustuva!",
    "studio.managerLimitMessageRemoveManagers": "Ennen kuin voit lisätä toisen managerin, sinun on poistettava nykyinen manageri.",
    "studio.managerCountInfo": "{numberOfManagers} / {managerLimit}",
    "studio.managerThresholdInfo": "Tässä studiossa on {numberOfManagers} manageria. Studioilla voi olla enintään {managerLimit}manageria.",
    "studio.managerThresholdRemoveManagers": "Ennen kuin voit lisätä toisen managerin, sinun on poistettava managerit, kunnes heitä on vähemmän kuin {managerLimit}.",
    "studio.transfer.youAreAboutTo": "You are about to make someone else the studio host.",
    "studio.transfer.cannotUndo": "You cannot undo this.",
    "studio.transfer.thisMeans": "This means...",
    "studio.transfer.noLongerEdit": "You will no longer be able to edit the title, thumbnail, and description",
    "studio.transfer.noLongerDelete": "You will no longer be able to delete the studio",
    "studio.transfer.whichManager": "Which manager do you want to make the host?",
    "studio.transfer.currentHost": "Current Host",
    "studio.transfer.newHost": "New Host",
    "studio.transfer.confirmWithPassword": "To confirm changing the studio host, please enter your password.",
    "studio.transfer.forgotPassword": "Unohditko salasanan?",
    "studio.transfer.alert.somethingWentWrong": "Something went wrong transferring this studio to a new host.",
    "studio.transfer.alert.wasntTheRightPassword": "Hmm, that wasn’t the right password.",
    "studio.transfer.alert.thisUserCannotBecomeHost": "This user cannot become the host — try transfering to another manager",
    "studio.remove": "Poista",
    "studio.promote": "Ylennä",
    "studio.transfer": "Change Studio Host",
    "studio.cancel": "Peruuta",
    "studio.okay": "Selvä",
    "studio.next": "Seuraava",
    "studio.back": "Taakse",
    "studio.confirm": "Confirm",
    "studio.commentsHeader": "Kommentit",
    "studio.commentsNotAllowed": "Tämän studion kommentointi on poistettu käytöstä.",
    "studio.comments.toggleOff": "Kommentointi pois",
    "studio.comments.toggleOn": "Kommentointi päällä",
    "studio.comments.turnedOff": "Valitettavasti kommenttien lähettäminen on poistettu käytöstä tälle studiolle.",
    "studio.comments.turnedOffGlobally": "Scratch-studion kommentit on poistettu käytöstä, mutta älä huoli, kommenttisi tallennetaan ja ne tulevat pian takaisin näkyviin.",
    "studio.sharedFilter": "Jaetut",
    "studio.favoritedFilter": "Suosikit",
    "studio.recentFilter": "Viimeisimmät",
    "studio.studentsFilter": "Opiskelijat",
    "studio.activityHeader": "Aktiivisuus",
    "studio.activityAddProjectToStudio": "{profileLink} lisäsi projektin {projectLink}",
    "studio.activityRemoveProjectStudio": "{profileLink} poisti projektin {projectLink}",
    "studio.activityUpdateStudio": "{profileLink} muokkasi otsikkoa, pikkukuvaa tai kuvausta",
    "studio.activityBecomeCurator": "{newCuratorProfileLink} hyväksyi kutsun henkilöltä {inviterProfileLink} kuratoimaan tätä studiota",
    "studio.activityRemoveCurator": "{removerProfileLink} poisti kuraattorin {removedProfileLink}",
    "studio.activityBecomeOwner": "{promotedProfileLink} was promoted to manager by {promotorProfileLink}",
    "studio.activityBecomeHost": "{newHostProfileLink} was made the studio host by {actorProfileLink}",
    "studio.activityBecomeHostAdminActor": "{newHostProfileLink} was made the studio host by a Scratch Team member",
    "studio.lastUpdated": "Updated {lastUpdatedDate, date, medium}",
    "studio.followerCount": "{followerCount} followers",
    "studio.reportThisStudio": "Raportoi tämä studio",
    "studio.reportPleaseExplain": "Please select which part of the studio you find to be disrespectful or inappropriate, or otherwise breaks the Scratch Community Guidelines.",
    "studio.reportAreThereComments": "Are there inappropriate comments in the studio? Please report them by clicking the \"report\" button on the individual comments.",
    "studio.reportThanksForLettingUsKnow": "Kiitos, kun kerroit meille!",
    "studio.reportYourFeedback": "Palautteesi auttaa meitä tekemään Scratchista paremman.",
    "studio.mutedCurators": "You will be able to invite curators and add managers again {inDuration}.",
    "studio.mutedProjects": "You will be able to add and remove projects again {inDuration}.",
    "studio.mutedEdit": "You will be able to edit studios again {inDuration}.",
    "studio.mutedPaused": "Your account has been paused from using studios until then.",
    "studio.mutedError": "Your account has been paused from using studios. Refresh for more information.",
    "studio.alertProjectAdded": "\"{title}\" added to studio",
    "studio.alertProjectAlreadyAdded": "That project is already in this studio",
    "studio.alertProjectRemoveError": "Something went wrong removing the project",
    "studio.alertProjectAddError": "Something went wrong adding the project",
    "studio.alertCuratorAlreadyInvited": "\"{name}\" has already been invited",
    "studio.alertCuratorInvited": "Curator invite sent to \"{name}\"",
    "studio.alertManagerPromote": "\"{name}\" is now a manager",
    "studio.alertManagerPromoteError": "Something went wrong promoting \"{name}\"",
    "studio.alertMemberRemoveError": "Something went wrong removing \"{name}\"",
    "studio.alertTransfer": "\"{name}\" is now the host",
    "studio.alertTransferRateLimit": "You can only change the host once a day. Try again tomorrow."
}